src/waveform/alu_op.vcd
$date
	Thu Mar 12 18:58:25 2026
$end
$version
	Icarus Verilog
$end
$timescale
	1ps
$end
$scope module alu_tb $end
$var wire 1 ! Z $end
$var wire 8 " Y [7:0] $end
$var wire 1 # O $end
$var wire 1 $ N $end
$var wire 1 % C $end
$var parameter 32 & WIDTH $end
$var reg 8 ' A [7:0] $end
$var reg 8 ( B [7:0] $end
$var reg 1 ) CLK $end
$var reg 1 * EN $end
$var reg 1 + RST $end
$var reg 4 , SEL [3:0] $end
$scope module dut $end
$var wire 8 - A [7:0] $end
$var wire 8 . B [7:0] $end
$var wire 1 ) CLK $end
$var wire 1 * EN $end
$var wire 1 + RST $end
$var wire 4 / SEL [3:0] $end
$var wire 3 0 shamt [2:0] $end
$var wire 1 1 do_xor $end
$var wire 1 2 do_sub $end
$var wire 1 3 do_srl $end
$var wire 1 4 do_sra $end
$var wire 1 5 do_slt $end
$var wire 1 6 do_sll $end
$var wire 1 7 do_or $end
$var wire 1 8 do_nor $end
$var wire 1 9 do_b $end
$var wire 1 : do_and $end
$var wire 1 ; do_add $end
$var wire 1 < do_a $end
$var wire 1 = cin $end
$var wire 8 > b_sh [7:0] $end
$var wire 8 ? b_log [7:0] $end
$var wire 8 @ b_arith [7:0] $end
$var wire 8 A a_sh [7:0] $end
$var wire 8 B a_log [7:0] $end
$var wire 8 C a_arith [7:0] $end
$var parameter 32 D WIDTH $end
$var reg 1 % C $end
$var reg 1 $ N $end
$var reg 1 # O $end
$var reg 8 E Y [7:0] $end
$var reg 1 ! Z $end
$var reg 1 F c $end
$var reg 1 G cout $end
$var reg 1 H n $end
$var reg 1 I o $end
$var reg 8 J y_next [7:0] $end
$var reg 1 K z $end
$upscope $end
$upscope $end
$enddefinitions $end
$comment Show the parameter values. $end
$dumpall
b1000 D
b1000 &
$end
#0
$dumpvars
1K
b0 J
0I
0H
0G
0F
b0 E
b0 C
b0 B
b0 A
b0 @
b0 ?
b0 >
0=
0<
1;
0:
09
08
07
06
05
04
03
02
01
b0 0
b0 /
b0 .
b0 -
b0 ,
0+
0*
0)
b0 (
b0 '
0%
0$
0#
b0 "
0!
$end
#5000
1)
#10000
0)
1*
1+
#15000
1!
1)
#20000
b101 @
0K
b1111 J
b1010 C
0)
b101 (
b101 .
b1010 '
b1010 -
#25000
0!
b1111 "
b1111 E
1)
#30000
1F
1K
1G
b0 J
b11111011 C
0)
b11111011 '
b11111011 -
#35000
1%
1!
b0 "
b0 E
1)
#40000
b11111100 @
1=
1F
0K
b111 J
1G
b1010 C
0)
0;
12
b1 ,
b1 /
b11 (
b11 .
b1010 '
b1010 -
#45000
0!
b111 "
b111 E
1)
#50000
1H
b11001100 ?
b10101010 B
b0 @
0=
1I
0F
0K
b10001000 J
0G
b0 C
0)
02
1:
b10 ,
b10 /
b11001100 (
b11001100 .
b10101010 '
b10101010 -
#55000
0I
1$
0%
b10001000 "
b10001000 E
1)
#60000
1I
b11101110 J
0)
0:
17
b11 ,
b11 /
#65000
0I
b11101110 "
b11101110 E
1)
#70000
0H
b1100110 J
0)
07
11
b100 ,
b100 /
#75000
0$
b1100110 "
b1100110 E
1)
#80000
b10001 J
0)
01
18
b101 ,
b101 /
#85000
b10001 "
b10001 E
1)
#90000
b10 0
b10 >
b1111 A
b0 ?
0K
b111100 J
b0 B
0)
08
16
b110 ,
b110 /
b10 (
b10 .
b1111 '
b1111 -
#95000
b111100 "
b111100 E
1)
#100000
b11 J
0)
06
13
b111 ,
b111 /
#105000
b11 "
b11 E
1)
#110000
1I
1H
b11100000 J
b10000000 A
0)
03
14
b1000 ,
b1000 /
b10000000 '
b10000000 -
#115000
0I
1$
b11100000 "
b11100000 E
1)
#120000
b0 0
b0 >
0H
b1 J
b0 A
0)
04
15
b1001 ,
b1001 /
b11 (
b11 .
b11111011 '
b11111011 -
#125000
0$
b1 "
b1 E
1)
#130000
b110111 J
0)
05
1<
b1010 ,
b1010 /
b110111 '
b110111 -
#135000
b110111 "
b110111 E
1)
#140000
b1001101 J
0)
0<
19
b1011 ,
b1011 /
b1001101 (
b1001101 .
