src/waveform/fifo_tb.vcd
$date
	Fri Mar 13 17:16:54 2026
$end
$version
	Icarus Verilog
$end
$timescale
	1ps
$end
$scope module fifo_tb $end
$var wire 1 ! full $end
$var wire 1 " empty $end
$var wire 8 # data_out [7:0] $end
$var reg 1 $ clk $end
$var reg 8 % data_in [7:0] $end
$var reg 1 & read_en $end
$var reg 1 ' reset $end
$var reg 1 ( write_en $end
$scope module uut $end
$var wire 1 $ clk $end
$var wire 8 ) data_in [7:0] $end
$var wire 1 & read_en $end
$var wire 1 ' reset $end
$var wire 1 ( write_en $end
$var wire 1 ! full $end
$var wire 1 " empty $end
$var parameter 32 * DATA_WIDTH $end
$var parameter 32 + DEPTH $end
$var reg 5 , count [4:0] $end
$var reg 8 - data_out [7:0] $end
$var reg 4 . rd_ptr [3:0] $end
$var reg 4 / wr_ptr [3:0] $end
$upscope $end
$upscope $end
$enddefinitions $end
$comment Show the parameter values. $end
$dumpall
b10000 +
b1000 *
$end
#0
$dumpvars
b0 /
b0 .
b0 -
b0 ,
b0 )
0(
1'
0&
b0 %
0$
b0 #
1"
0!
$end
#5000
0'
1$
#10000
0$
#15000
0"
b1 ,
b1 /
b10100001 %
b10100001 )
1(
1$
#20000
0$
#25000
b10 ,
b10 /
b10110010 %
b10110010 )
1$
#30000
0$
#35000
b11 ,
b11 /
b11000011 %
b11000011 )
1$
#40000
0$
#45000
b100 ,
b100 /
b11010100 %
b11010100 )
1$
#50000
0$
#55000
0(
1$
#60000
0$
#65000
b11 ,
b1 .
b10100001 #
b10100001 -
1&
1$
#70000
0$
#75000
b10 ,
b10 .
b10110010 #
b10110010 -
1$
#80000
0$
#85000
b1 ,
b11 .
b11000011 #
b11000011 -
1$
#90000
0$
#95000
1"
b0 ,
b100 .
b11010100 #
b11010100 -
1$
#100000
0$
#105000
0&
1$
